{
  "project_info": {
    "project_number": "323341280958",
    "firebase_url": "https://magios-weather.firebaseio.com",
    "project_id": "magios-weather",
    "storage_bucket": "magios-weather.appspot.com"
  },
  "client": [
    {
      "client_info": {
        "mobilesdk_app_id": "1:323341280958:android:31ad7941a740738bc820ef",
        "android_client_info": {
          "package_name": "com.example.weather"
        }
      },
      "oauth_client": [
        {
          "client_id": "323341280958-0a0ul49ndn4slapqgra1kqrncf40g4ob.apps.googleusercontent.com",
          "client_type": 3
        }
      ],
      "api_key": [
        {
          "current_key": "AIzaSyAmdN6DAuBzGIaQmCga3Sg_jSXFYXpH9kg"
        }
      ],
      "services": {
        "appinvite_service": {
          "other_platform_oauth_client": [
            {
              "client_id": "323341280958-0a0ul49ndn4slapqgra1kqrncf40g4ob.apps.googleusercontent.com",
              "client_type": 3
            }
          ]
        }
      }
    }
  ],
  "configuration_version": "1"
}